{
  "classes": [
    {
      "label": "Berserker",
      "value": "berserker"
    },
    {
      "label": "Paladin",
      "value": "paladin"
    },
    {
      "label": "Gunlancer",
      "value": "gunlancer"
    },
    {
      "label": "Striker",
      "value": "striker"
    },
    {
      "label": "Wardancer",
      "value": "wardancer"
    },
    {
      "label": "Scrapper",
      "value": "scrapper"
    },
    {
      "label": "Soulfist",
      "value": "soulfist"
    },
    {
      "label": "Glaivier",
      "value": "glaivier"
    },
    {
      "label": "Gunslinger",
      "value": "gunslinger"
    },
    {
      "label": "Artillerist",
      "value": "artillerist"
    },
    {
      "label": "Deadeye",
      "value": "deadeye"
    },
    {
      "label": "Sharpshooter",
      "value": "sharpshooter"
    },
    {
      "label": "Bard",
      "value": "bard"
    },
    {
      "label": "Sorcceres",
      "value": "sorcceres"
    },
    {
      "label": "Shadowhunter",
      "value": "shadowhunter"
    },
    {
      "label": "Deathblade",
      "value": "deathblade"
    }
  ]
}